%YAML 1.1
%TAG !u! tag:unity3d.com,2011:
--- !u!114 &11400000
MonoBehaviour:
  m_ObjectHideFlags: 0
  m_CorrespondingSourceObject: {fileID: 0}
  m_PrefabInstance: {fileID: 0}
  m_PrefabAsset: {fileID: 0}
  m_GameObject: {fileID: 0}
  m_Enabled: 1
  m_EditorHideFlags: 0
  m_Script: {fileID: 11500000, guid: 80635d907da40f3469e7dfe35a9d2424, type: 3}
  m_Name: AelghizDialog
  m_EditorClassIdentifier: 
  DialogText:
  - "Ma\xF0r er moldar auki; mikil er gr\xE6ip \xE1 hauki"
  DialogSound:
  - {fileID: 8300000, guid: 2e2b150e9b4643c44b729e80193abb40, type: 3}
