%YAML 1.1
%TAG !u! tag:unity3d.com,2011:
--- !u!114 &11400000
MonoBehaviour:
  m_ObjectHideFlags: 0
  m_CorrespondingSourceObject: {fileID: 0}
  m_PrefabInstance: {fileID: 0}
  m_PrefabAsset: {fileID: 0}
  m_GameObject: {fileID: 0}
  m_Enabled: 1
  m_EditorHideFlags: 0
  m_Script: {fileID: 11500000, guid: 80635d907da40f3469e7dfe35a9d2424, type: 3}
  m_Name: TeiwazDialog
  m_EditorClassIdentifier: 
  DialogText:
  - " T\xFDr er \xE6inendr \xE1sa opt v\xE6r\xF0r smi\xF0r at bl\xE1sa."
  DialogSound: []
