%YAML 1.1
%TAG !u! tag:unity3d.com,2011:
--- !u!114 &-4378871270058200517
MonoBehaviour:
  m_ObjectHideFlags: 3
  m_CorrespondingSourceObject: {fileID: 0}
  m_PrefabInstance: {fileID: 0}
  m_PrefabAsset: {fileID: 0}
  m_GameObject: {fileID: 0}
  m_Enabled: 1
  m_EditorHideFlags: 0
  m_Script: {fileID: 11500000, guid: b51a78e223a2e504bb88a059b55229ea, type: 3}
  m_Name: WhiteBalance
  m_EditorClassIdentifier: 
  active: 1
  m_AdvancedMode: 0
  temperature:
    m_OverrideState: 1
    m_Value: 10
    min: -100
    max: 100
  tint:
    m_OverrideState: 0
    m_Value: 0
    min: -100
    max: 100
--- !u!114 &-1167143466653396744
MonoBehaviour:
  m_ObjectHideFlags: 3
  m_CorrespondingSourceObject: {fileID: 0}
  m_PrefabInstance: {fileID: 0}
  m_PrefabAsset: {fileID: 0}
  m_GameObject: {fileID: 0}
  m_Enabled: 1
  m_EditorHideFlags: 0
  m_Script: {fileID: 11500000, guid: 59b6606ef2548734bb6d11b9d160bc7e, type: 3}
  m_Name: HDRISky
  m_EditorClassIdentifier: 
  active: 1
  m_AdvancedMode: 0
  rotation:
    m_OverrideState: 1
    m_Value: 116
    min: 0
    max: 360
  skyIntensityMode:
    m_OverrideState: 1
    m_Value: 0
  exposure:
    m_OverrideState: 1
    m_Value: 13.5
  multiplier:
    m_OverrideState: 0
    m_Value: 1
    min: 0
  upperHemisphereLuxValue:
    m_OverrideState: 0
    m_Value: 0.46607146
    min: 0
  upperHemisphereLuxColor:
    m_OverrideState: 0
    m_Value: {x: 0.18750611, y: 0.29181966, z: 0.5}
  desiredLuxValue:
    m_OverrideState: 1
    m_Value: 25000
  updateMode:
    m_OverrideState: 0
    m_Value: 0
  updatePeriod:
    m_OverrideState: 0
    m_Value: 0
    min: 0
  includeSunInBaking:
    m_OverrideState: 0
    m_Value: 0
  hdriSky:
    m_OverrideState: 1
    m_Value: {fileID: 8900000, guid: 54a3a0570aebe8949bec4966f1376581, type: 3}
  enableDistortion:
    m_OverrideState: 0
    m_Value: 0
  procedural:
    m_OverrideState: 0
    m_Value: 1
  flowmap:
    m_OverrideState: 0
    m_Value: {fileID: 0}
  upperHemisphereOnly:
    m_OverrideState: 0
    m_Value: 1
  scrollDirection:
    m_OverrideState: 0
    m_Value: 0
    min: 0
    max: 360
  scrollSpeed:
    m_OverrideState: 0
    m_Value: 2
    min: 0
  enableBackplate:
    m_OverrideState: 0
    m_Value: 0
  backplateType:
    m_OverrideState: 0
    m_Value: 0
  groundLevel:
    m_OverrideState: 0
    m_Value: 0
  scale:
    m_OverrideState: 0
    m_Value: {x: 32, y: 32}
  projectionDistance:
    m_OverrideState: 0
    m_Value: 16
    min: 0.0000001
  plateRotation:
    m_OverrideState: 0
    m_Value: 0
    min: 0
    max: 360
  plateTexRotation:
    m_OverrideState: 0
    m_Value: 0
    min: 0
    max: 360
  plateTexOffset:
    m_OverrideState: 0
    m_Value: {x: 0, y: 0}
  blendAmount:
    m_OverrideState: 0
    m_Value: 0
    min: 0
    max: 100
  shadowTint:
    m_OverrideState: 0
    m_Value: {r: 0.5, g: 0.5, b: 0.5, a: 1}
    hdr: 0
    showAlpha: 1
    showEyeDropper: 1
  pointLightShadow:
    m_OverrideState: 0
    m_Value: 0
  dirLightShadow:
    m_OverrideState: 0
    m_Value: 0
  rectLightShadow:
    m_OverrideState: 0
    m_Value: 0
--- !u!114 &11400000
MonoBehaviour:
  m_ObjectHideFlags: 0
  m_CorrespondingSourceObject: {fileID: 0}
  m_PrefabInstance: {fileID: 0}
  m_PrefabAsset: {fileID: 0}
  m_GameObject: {fileID: 0}
  m_Enabled: 1
  m_EditorHideFlags: 0
  m_Script: {fileID: 11500000, guid: d7fd9488000d3734a9e00ee676215985, type: 3}
  m_Name: GlobalVolume
  m_EditorClassIdentifier: 
  components:
  - {fileID: 1359070828411649799}
  - {fileID: -1167143466653396744}
  - {fileID: 8049981929359091865}
  - {fileID: 6640133647794636954}
  - {fileID: 2759069934644561995}
  - {fileID: 2112682869544596416}
  - {fileID: 5002876554434076654}
  - {fileID: -4378871270058200517}
--- !u!114 &1359070828411649799
MonoBehaviour:
  m_ObjectHideFlags: 3
  m_CorrespondingSourceObject: {fileID: 0}
  m_PrefabInstance: {fileID: 0}
  m_PrefabAsset: {fileID: 0}
  m_GameObject: {fileID: 0}
  m_Enabled: 1
  m_EditorHideFlags: 0
  m_Script: {fileID: 11500000, guid: 0d7593b3a9277ac4696b20006c21dde2, type: 3}
  m_Name: 
  m_EditorClassIdentifier: 
  active: 1
  m_AdvancedMode: 0
  skyType:
    m_OverrideState: 1
    m_Value: 1
  skyAmbientMode:
    m_OverrideState: 1
    m_Value: 1
  fogType:
    m_OverrideState: 1
    m_Value: 0
--- !u!114 &2112682869544596416
MonoBehaviour:
  m_ObjectHideFlags: 3
  m_CorrespondingSourceObject: {fileID: 0}
  m_PrefabInstance: {fileID: 0}
  m_PrefabAsset: {fileID: 0}
  m_GameObject: {fileID: 0}
  m_Enabled: 1
  m_EditorHideFlags: 0
  m_Script: {fileID: 11500000, guid: 56b145d2b9ee1ac4f846968484e7485a, type: 3}
  m_Name: ContactShadows
  m_EditorClassIdentifier: 
  active: 1
  m_AdvancedMode: 0
  quality:
    m_OverrideState: 1
    m_Value: 2
  enable:
    m_OverrideState: 1
    m_Value: 0
  length:
    m_OverrideState: 1
    m_Value: 0.1
    min: 0
    max: 1
  opacity:
    m_OverrideState: 0
    m_Value: 1
    min: 0
    max: 1
  distanceScaleFactor:
    m_OverrideState: 1
    m_Value: 0.5
    min: 0
    max: 1
  maxDistance:
    m_OverrideState: 1
    m_Value: 100
    min: 0
  minDistance:
    m_OverrideState: 0
    m_Value: 0
    min: 0
  fadeDistance:
    m_OverrideState: 1
    m_Value: 10
    min: 0
  fadeInDistance:
    m_OverrideState: 0
    m_Value: 0
    min: 0
  rayBias:
    m_OverrideState: 0
    m_Value: 0.2
    min: 0
    max: 1
  thicknessScale:
    m_OverrideState: 0
    m_Value: 0.15
    min: 0.02
    max: 1
  m_SampleCount:
    m_OverrideState: 1
    m_Value: 12
    min: 4
    max: 64
--- !u!114 &2759069934644561995
MonoBehaviour:
  m_ObjectHideFlags: 3
  m_CorrespondingSourceObject: {fileID: 0}
  m_PrefabInstance: {fileID: 0}
  m_PrefabAsset: {fileID: 0}
  m_GameObject: {fileID: 0}
  m_Enabled: 1
  m_EditorHideFlags: 0
  m_Script: {fileID: 11500000, guid: 953beb541740ddc499d005ee80c9ff29, type: 3}
  m_Name: Fog
  m_EditorClassIdentifier: 
  active: 1
  m_AdvancedMode: 1
  quality:
    m_OverrideState: 0
    m_Value: 1
  enabled:
    m_OverrideState: 1
    m_Value: 1
  colorMode:
    m_OverrideState: 0
    m_Value: 1
  color:
    m_OverrideState: 0
    m_Value: {r: 0.5, g: 0.5, b: 0.5, a: 1}
    hdr: 1
    showAlpha: 0
    showEyeDropper: 1
  tint:
    m_OverrideState: 0
    m_Value: {r: 1, g: 1, b: 1, a: 1}
    hdr: 1
    showAlpha: 0
    showEyeDropper: 1
  maxFogDistance:
    m_OverrideState: 0
    m_Value: 5000
    min: 0
  mipFogMaxMip:
    m_OverrideState: 0
    m_Value: 0.5
    min: 0
    max: 1
  mipFogNear:
    m_OverrideState: 0
    m_Value: 0
    min: 0
  mipFogFar:
    m_OverrideState: 0
    m_Value: 1000
    min: 0
  baseHeight:
    m_OverrideState: 0
    m_Value: 0
  maximumHeight:
    m_OverrideState: 1
    m_Value: 500
  meanFreePath:
    m_OverrideState: 1
    m_Value: 5000
    min: 1
  enableVolumetricFog:
    m_OverrideState: 1
    m_Value: 1
  albedo:
    m_OverrideState: 0
    m_Value: {r: 1, g: 1, b: 1, a: 1}
    hdr: 0
    showAlpha: 1
    showEyeDropper: 1
  globalLightProbeDimmer:
    m_OverrideState: 1
    m_Value: 0
    min: 0
    max: 1
  depthExtent:
    m_OverrideState: 1
    m_Value: 50
    min: 0.1
  denoisingMode:
    m_OverrideState: 0
    m_Value: 2
  anisotropy:
    m_OverrideState: 0
    m_Value: 0
    min: -1
    max: 1
  sliceDistributionUniformity:
    m_OverrideState: 1
    m_Value: 1
    min: 0
    max: 1
  m_FogControlMode:
    m_OverrideState: 0
    m_Value: 0
  screenResolutionPercentage:
    m_OverrideState: 0
    m_Value: 12.5
    min: 6.25
    max: 50
  volumeSliceCount:
    m_OverrideState: 0
    m_Value: 64
    min: 1
    max: 512
  m_VolumetricFogBudget:
    m_OverrideState: 0
    m_Value: 0.25
    min: 0
    max: 1
  m_ResolutionDepthRatio:
    m_OverrideState: 0
    m_Value: 0.5
    min: 0
    max: 1
  directionalLightsOnly:
    m_OverrideState: 0
    m_Value: 0
  filter:
    m_OverrideState: 0
    m_Value: 0
--- !u!114 &5002876554434076654
MonoBehaviour:
  m_ObjectHideFlags: 3
  m_CorrespondingSourceObject: {fileID: 0}
  m_PrefabInstance: {fileID: 0}
  m_PrefabAsset: {fileID: 0}
  m_GameObject: {fileID: 0}
  m_Enabled: 1
  m_EditorHideFlags: 0
  m_Script: {fileID: 11500000, guid: 9008a067f4d626c4d8bc4bc48f04bb89, type: 3}
  m_Name: AmbientOcclusion
  m_EditorClassIdentifier: 
  active: 1
  m_AdvancedMode: 0
  quality:
    m_OverrideState: 1
    m_Value: 0
  rayTracing:
    m_OverrideState: 0
    m_Value: 0
  intensity:
    m_OverrideState: 1
    m_Value: 0
    min: 0
    max: 4
  directLightingStrength:
    m_OverrideState: 1
    m_Value: 0.1
    min: 0
    max: 1
  radius:
    m_OverrideState: 1
    m_Value: 0.5
    min: 0.25
    max: 5
  spatialBilateralAggressiveness:
    m_OverrideState: 0
    m_Value: 0.15
    min: 0
    max: 1
  temporalAccumulation:
    m_OverrideState: 0
    m_Value: 1
  ghostingReduction:
    m_OverrideState: 0
    m_Value: 0.5
    min: 0
    max: 1
  blurSharpness:
    m_OverrideState: 0
    m_Value: 0.1
    min: 0
    max: 1
  layerMask:
    m_OverrideState: 0
    m_Value:
      serializedVersion: 2
      m_Bits: 4294967295
  m_StepCount:
    m_OverrideState: 1
    m_Value: 6
    min: 2
    max: 32
  m_FullResolution:
    m_OverrideState: 1
    m_Value: 0
  m_MaximumRadiusInPixels:
    m_OverrideState: 1
    m_Value: 40
    min: 16
    max: 256
  m_BilateralUpsample:
    m_OverrideState: 1
    m_Value: 1
  m_DirectionCount:
    m_OverrideState: 1
    m_Value: 2
    min: 1
    max: 6
  m_RayLength:
    m_OverrideState: 0
    m_Value: 0.5
    min: 0
  m_SampleCount:
    m_OverrideState: 0
    m_Value: 4
    min: 1
    max: 64
  m_Denoise:
    m_OverrideState: 0
    m_Value: 0
  m_DenoiserRadius:
    m_OverrideState: 0
    m_Value: 0.5
    min: 0.001
    max: 1
--- !u!114 &6640133647794636954
MonoBehaviour:
  m_ObjectHideFlags: 3
  m_CorrespondingSourceObject: {fileID: 0}
  m_PrefabInstance: {fileID: 0}
  m_PrefabAsset: {fileID: 0}
  m_GameObject: {fileID: 0}
  m_Enabled: 1
  m_EditorHideFlags: 0
  m_Script: {fileID: 11500000, guid: 2d08ce26990eb1a4a9177b860541e702, type: 3}
  m_Name: Exposure
  m_EditorClassIdentifier: 
  active: 1
  m_AdvancedMode: 0
  mode:
    m_OverrideState: 1
    m_Value: 3
  meteringMode:
    m_OverrideState: 1
    m_Value: 0
  luminanceSource:
    m_OverrideState: 0
    m_Value: 1
  fixedExposure:
    m_OverrideState: 1
    m_Value: 12
  compensation:
    m_OverrideState: 1
    m_Value: 3.5
  limitMin:
    m_OverrideState: 1
    m_Value: 5
  limitMax:
    m_OverrideState: 1
    m_Value: 13
  curveMap:
    m_OverrideState: 0
    m_Value:
      serializedVersion: 2
      m_Curve:
      - serializedVersion: 3
        time: -10
        value: -10
        inSlope: 0
        outSlope: 1
        tangentMode: 0
        weightedMode: 0
        inWeight: 0
        outWeight: 0
      - serializedVersion: 3
        time: 20
        value: 20
        inSlope: 1
        outSlope: 0
        tangentMode: 0
        weightedMode: 0
        inWeight: 0
        outWeight: 0
      m_PreInfinity: 2
      m_PostInfinity: 2
      m_RotationOrder: 4
  limitMinCurveMap:
    m_OverrideState: 0
    m_Value:
      serializedVersion: 2
      m_Curve:
      - serializedVersion: 3
        time: -10
        value: -12
        inSlope: 0
        outSlope: 1
        tangentMode: 0
        weightedMode: 0
        inWeight: 0
        outWeight: 0
      - serializedVersion: 3
        time: 20
        value: 18
        inSlope: 1
        outSlope: 0
        tangentMode: 0
        weightedMode: 0
        inWeight: 0
        outWeight: 0
      m_PreInfinity: 2
      m_PostInfinity: 2
      m_RotationOrder: 4
  limitMaxCurveMap:
    m_OverrideState: 0
    m_Value:
      serializedVersion: 2
      m_Curve:
      - serializedVersion: 3
        time: -10
        value: -8
        inSlope: 0
        outSlope: 1
        tangentMode: 0
        weightedMode: 0
        inWeight: 0
        outWeight: 0
      - serializedVersion: 3
        time: 20
        value: 22
        inSlope: 1
        outSlope: 0
        tangentMode: 0
        weightedMode: 0
        inWeight: 0
        outWeight: 0
      m_PreInfinity: 2
      m_PostInfinity: 2
      m_RotationOrder: 4
  adaptationMode:
    m_OverrideState: 1
    m_Value: 1
  adaptationSpeedDarkToLight:
    m_OverrideState: 1
    m_Value: 4
    min: 0.001
  adaptationSpeedLightToDark:
    m_OverrideState: 1
    m_Value: 4
    min: 0.001
  weightTextureMask:
    m_OverrideState: 0
    m_Value: {fileID: 0}
  histogramPercentages:
    m_OverrideState: 0
    m_Value: {x: 40, y: 90}
    min: 0
    max: 100
  histogramUseCurveRemapping:
    m_OverrideState: 0
    m_Value: 0
  targetMidGray:
    m_OverrideState: 0
    m_Value: 0
  centerAroundExposureTarget:
    m_OverrideState: 0
    m_Value: 0
  proceduralCenter:
    m_OverrideState: 0
    m_Value: {x: 0.5, y: 0.5}
  proceduralRadii:
    m_OverrideState: 0
    m_Value: {x: 0.3, y: 0.3}
  maskMinIntensity:
    m_OverrideState: 0
    m_Value: -30
  maskMaxIntensity:
    m_OverrideState: 0
    m_Value: 30
  proceduralSoftness:
    m_OverrideState: 0
    m_Value: 0.5
    min: 0
--- !u!114 &8049981929359091865
MonoBehaviour:
  m_ObjectHideFlags: 3
  m_CorrespondingSourceObject: {fileID: 0}
  m_PrefabInstance: {fileID: 0}
  m_PrefabAsset: {fileID: 0}
  m_GameObject: {fileID: 0}
  m_Enabled: 1
  m_EditorHideFlags: 0
  m_Script: {fileID: 11500000, guid: f086a068d4c5889438831b3ae9afc11c, type: 3}
  m_Name: Tonemapping
  m_EditorClassIdentifier: 
  active: 1
  m_AdvancedMode: 0
  mode:
    m_OverrideState: 1
    m_Value: 2
  toeStrength:
    m_OverrideState: 0
    m_Value: 0
    min: 0
    max: 1
  toeLength:
    m_OverrideState: 0
    m_Value: 0.5
    min: 0
    max: 1
  shoulderStrength:
    m_OverrideState: 0
    m_Value: 0
    min: 0
    max: 1
  shoulderLength:
    m_OverrideState: 0
    m_Value: 0.5
    min: 0
  shoulderAngle:
    m_OverrideState: 0
    m_Value: 0
    min: 0
    max: 1
  gamma:
    m_OverrideState: 0
    m_Value: 1
    min: 0.001
  lutTexture:
    m_OverrideState: 0
    m_Value: {fileID: 0}
  lutContribution:
    m_OverrideState: 0
    m_Value: 1
    min: 0
    max: 1
