%YAML 1.1
%TAG !u! tag:unity3d.com,2011:
--- !u!114 &11400000
MonoBehaviour:
  m_ObjectHideFlags: 0
  m_CorrespondingSourceObject: {fileID: 0}
  m_PrefabInstance: {fileID: 0}
  m_PrefabAsset: {fileID: 0}
  m_GameObject: {fileID: 0}
  m_Enabled: 1
  m_EditorHideFlags: 0
  m_Script: {fileID: 11500000, guid: 331d5cc0a1445bd46aea3979b830a24e, type: 3}
  m_Name: Thurizas
  m_EditorClassIdentifier: 
  RuneName: Thurizas
  RuneImage: {fileID: 21300000, guid: 0f3ce698367f2cf46b27fa879119978d, type: 3}
  Dialog: {fileID: 11400000, guid: a723eee97aa5ff04d89c842bb506454f, type: 2}
  HasBeenFound: 0
