%YAML 1.1
%TAG !u! tag:unity3d.com,2011:
--- !u!114 &11400000
MonoBehaviour:
  m_ObjectHideFlags: 0
  m_CorrespondingSourceObject: {fileID: 0}
  m_PrefabInstance: {fileID: 0}
  m_PrefabAsset: {fileID: 0}
  m_GameObject: {fileID: 0}
  m_Enabled: 1
  m_EditorHideFlags: 0
  m_Script: {fileID: 11500000, guid: 329a8da1656ea9f4d891635cb2ca98fe, type: 3}
  m_Name: SfxSTO 2
  m_EditorClassIdentifier: 
  Sound: {fileID: 8300000, guid: 7dc6538486b2f3b49baa483bf087cbed, type: 3}
  Volume: 0.7
  VolumeVariation: 0
  pitch: 1
  pitchVariation: 0
