%YAML 1.1
%TAG !u! tag:unity3d.com,2011:
--- !u!114 &11400000
MonoBehaviour:
  m_ObjectHideFlags: 0
  m_CorrespondingSourceObject: {fileID: 0}
  m_PrefabInstance: {fileID: 0}
  m_PrefabAsset: {fileID: 0}
  m_GameObject: {fileID: 0}
  m_Enabled: 1
  m_EditorHideFlags: 0
  m_Script: {fileID: 11500000, guid: 9050266a75fa6304dbef74b70930ec3d, type: 3}
  m_Name: Teleport
  m_EditorClassIdentifier: 
  CurrentAbilities: 3
  Sprite: {fileID: 21300000, guid: e8c50d77927c1bb409f0d9ba879f6179, type: 3}
  Range: 30
  Time: 1
  Usage: 1
  Layers:
    serializedVersion: 2
    m_Bits: 1088
