%YAML 1.1
%TAG !u! tag:unity3d.com,2011:
--- !u!114 &11400000
MonoBehaviour:
  m_ObjectHideFlags: 0
  m_CorrespondingSourceObject: {fileID: 0}
  m_PrefabInstance: {fileID: 0}
  m_PrefabAsset: {fileID: 0}
  m_GameObject: {fileID: 0}
  m_Enabled: 1
  m_EditorHideFlags: 0
  m_Script: {fileID: 11500000, guid: 258bc8e1d5fcece4c97eea0c0eb10892, type: 3}
  m_Name: Bridge
  m_EditorClassIdentifier: 
  RewardTaken: 0
  ActivePuzzle: 0
  ActiveElements: 00
  FinishedPuzzle: 0
