%YAML 1.1
%TAG !u! tag:unity3d.com,2011:
--- !u!114 &11400000
MonoBehaviour:
  m_ObjectHideFlags: 0
  m_CorrespondingSourceObject: {fileID: 0}
  m_PrefabInstance: {fileID: 0}
  m_PrefabAsset: {fileID: 0}
  m_GameObject: {fileID: 0}
  m_Enabled: 1
  m_EditorHideFlags: 0
  m_Script: {fileID: 11500000, guid: 0a22848dac460994e8cf7e9639d11df7, type: 3}
  m_Name: Player
  m_EditorClassIdentifier: 
  WalkingSpeed: 3.5
  RunningSpeed: 8.5
  CorruptedLevel: 50
  FullCorruption: 100
  CorruptionLevel: 3
  CurrentPosition: {x: 538, y: 24, z: 656}
  ActivePosition: 1
